%YAML 1.1
%TAG !u! tag:unity3d.com,2011:
--- !u!114 &11400000
MonoBehaviour:
  m_ObjectHideFlags: 0
  m_CorrespondingSourceObject: {fileID: 0}
  m_PrefabInstance: {fileID: 0}
  m_PrefabAsset: {fileID: 0}
  m_GameObject: {fileID: 0}
  m_Enabled: 1
  m_EditorHideFlags: 0
  m_Script: {fileID: 11500000, guid: 2800d9b0686494a41961fd9aecdc49ed, type: 3}
  m_Name: LaserUltimate
  m_EditorClassIdentifier: 
  name: LaserUltimate
  icon: {fileID: 21300000, guid: bcea71beb3cfb432cbfd7bbc54e2e080, type: 3}
  cooldown: 0.5
  bullet: {fileID: 1541129406752818765, guid: 3d73a2959d2994e268c667c6572bff3b, type: 3}
